%YAML 1.1
%TAG !u! tag:unity3d.com,2011:
--- !u!78 &1
TagManager:
  serializedVersion: 2
  tags:
  - StepPoint
  - Hero
  - TileTex
  - EmphSelected
  - Tile
  - NeutralEnemy
  - Facilty
  - Resource
  - FacilityMessage
  - Emph
  - TileGrid
  - GameManager
  - TwoHeroesUI
  layers:
  - Default
  - TransparentFX
  - Ignore Raycast
  - 
  - Water
  - UI
  - 
  - 
  - Background
  - Tile
  - TileFX
  - FacilityFX
  - Facility
  - HeroFX
  - Hero
  - Resource
  - 
  - 
  - 
  - 
  - 
  - 
  - 
  - 
  - 
  - 
  - 
  - 
  - 
  - 
  - 
  - UI Button
  m_SortingLayers:
  - name: Default
    uniqueID: 0
    locked: 0
